001-0060|дараа нь дахиад найман сартай хулан гээд охинтой танилцсан|дараа нь дахиад найман сартай хулан гээд охинтой танилцсан
001-0001|одоо энэ үнэ цэнэтэй хугацаанаас чинь мянга наян секундыг авах гэж байна|одоо энэ үнэ цэнэтэй хугацаанаас чинь мянга наян секундыг авах гэж байна
001-0099|тэгээд арван хоёр хувь нь болохоороо, бодож байгаа зорьж байгаа хайж байгаа гэжийгаа байхгүй юу, тэгээд үлдсэн хувь нь бол ерөөсөө сонирхохгүй байгаа гэ|тэгээд арван хоёр хувь нь болохоороо, бодож байгаа зорьж байгаа хайж байгаа гэжийгаа байхгүй юу, тэгээд үлдсэн хувь нь бол ерөөсөө сонирхохгүй байгаа гэ
001-0098|судалгаагаа хийсэн, тэгээд, аль хэдийнээ одоо нөгөө жаран нэгэн хувь нь, аль хэдийнээ уулзаад болзоод салцан байсан|судалгаагаа хийсэн, тэгээд, аль хэдийнээ одоо нөгөө жаран нэгэн хувь нь, аль хэдийнээ уулзаад болзоод салцан байсан
001-0014|хүссэн бүхнээ нийтэлж болдог тийм|хүссэн бүхнээ нийтэлж болдог тийм
001-0013|фэйсбүүк гэдэг зүйл гарч ирсэн нь болвол та бүхэн мэдэж байгаа надаар хэлүүлэлтгүй давуу талыг нь угаасаа мэдэж байгаа тэ, хоорондоо харьцаж болдог, хаанаас л бол хаанаас мэдээлэл түгээж болдог, өөрийнхөө тухай одоо|фэйсбүүк гэдэг зүйл гарч ирсэн нь болвол та бүхэн мэдэж байгаа надаар хэлүүлэлтгүй давуу талыг нь угаасаа мэдэж байгаа тэ, хоорондоо харьцаж болдог, хаанаас л бол хаанаас мэдээлэл түгээж болдог, өөрийнхөө тухай одоо
001-0091|эсэхгүй болвол ерөөсөө ингээд шөнө унтжаагаад ингээд нэг пост биччингүүт|эсэхгүй болвол ерөөсөө ингээд шөнө унтжаагаад ингээд нэг пост биччингүүт
001-0084|юун сонин сэдвээр бичдэгийн? одоо ийм сэдэв байдгиймуу?|юун сонин сэдвээр бичдэгийн? одоо ийм сэдэв байдгиймуу?
001-0050|тэгээд арван таван сая төгрөг гээд бид нар ингээд ватмон цаасан дээр бичцэн байсан тэгээд аймар смайл зисмайлтай|тэгээд арван таван сая төгрөг гээд бид нар ингээд ватмон цаасан дээр бичцэн байсан тэгээд аймар смайл зисмайлтай
001-0007|магадгүй бид нарын хувьд ч юм уу, зарим хүмүүсийн хувьд болвол одоо юу гэдгийг байдаг л нэг хугацаа юм шиг санагддаг байх|магадгүй бид нарын хувьд ч юм уу, зарим хүмүүсийн хувьд болвол одоо юу гэдгийг байдаг л нэг хугацаа юм шиг санагддаг байх
001-0063|ээ энэ худлаа дүр эсгэцэн, одоо нэг сайн хүн мүн гээд харагдах гээд аягүй тэгдэг юм билээ тийм юм хийчихээр|ээ энэ худлаа дүр эсгэцэн, одоо нэг сайн хүн мүн гээд харагдах гээд аягүй тэгдэг юм билээ тийм юм хийчихээр
001-0004|өнөөдөр|өнөөдөр
001-0070|өсч торниж яваа|өсч торниж яваа
001-0026|эгчийг нь бол би мэддэг, тэгээд надад санал тавьсан, мөн манай найзууд санал тавьсан|эгчийг нь бол би мэддэг, тэгээд надад санал тавьсан, мөн манай найзууд санал тавьсан
001-0093|тухайн үед одоо нөгөө фокус бүлгийн ярилцлага гээд хүмүүсийнхээ нэрий нь дурдах биш дөрөв тавуулаа суугаад ярилцдаг, ямар үр дүн гаржийн|тухайн үед одоо нөгөө фокус бүлгийн ярилцлага гээд хүмүүсийнхээ нэрий нь дурдах биш дөрөв тавуулаа суугаад ярилцдаг, ямар үр дүн гаржийн
001-0092|тэр юу гээд бичцэн бол? гэж бодож босч ирж хардаг гээл тэгээд янз янзын ийм сонин юм хийжийсэн|тэр юу гээд бичцэн бол? гэж бодож босч ирж хардаг гээл тэгээд янз янзын ийм сонин юм хийжийсэн
001-0068|одоо шарх нь аниад, нялх хүүхэд учраас би бас сайн хэлж мэдэхгүй байна ямар ч байсан|одоо шарх нь аниад, нялх хүүхэд учраас би бас сайн хэлж мэдэхгүй байна ямар ч байсан
001-0059|эрүүл саруул болоод, одоо ерөөсөө тэр муухай мэдрэмжийг ерөөсөө амсалгүйгээр өсч торниж яваа нь аягүй гайхалтай санагдсан|эрүүл саруул болоод, одоо ерөөсөө тэр муухай мэдрэмжийг ерөөсөө амсалгүйгээр өсч торниж яваа нь аягүй гайхалтай санагдсан
001-0087|тэгээд дипломоо хийгээд эхэлсэн чинь аягүй тийм|тэгээд дипломоо хийгээд эхэлсэн чинь аягүй тийм
001-0030|тэгээд анх тэр хүүхэдтэй танилцахад болвол би одоо нэг ийм жоохон хүүхэд ингээл|тэгээд анх тэр хүүхэдтэй танилцахад болвол би одоо нэг ийм жоохон хүүхэд ингээл
001-0020|тэр хүүг бол мөнххүслэн гэдэг|тэр хүүг бол мөнххүслэн гэдэг
001-0025|а тэр хүүхдийн|а тэр хүүхдийн
001-0074|энэ сошиал медиа, фэйсбүүк дээр гоё зүйлийг түгээж чаддаг гэдэг нь|энэ сошиал медиа, фэйсбүүк дээр гоё зүйлийг түгээж чаддаг гэдэг нь
001-0040|өөрийгөө одоо маргааш би үхнэ гэдгиймуу тэ хэзээ нэгэн цагт байхгүй болохчийн гэж бодолгүйгээр|өөрийгөө одоо маргааш би үхнэ гэдгиймуу тэ хэзээ нэгэн цагт байхгүй болохчийн гэж бодолгүйгээр
001-0076|би ч дотроо их баярлажийсан|би ч дотроо их баярлажийсан
001-0095|та|та
001-0051|угаасаа олчих байх гэж бодоод|угаасаа олчих байх гэж бодоод
001-0090|зарим нь болохоор ямар ч шалтгаангүйгээр байн байн ордог рефлекс тогтцон|зарим нь болохоор ямар ч шалтгаангүйгээр байн байн ордог рефлекс тогтцон
001-0069|хагалгаа нь амжилттай болоод|хагалгаа нь амжилттай болоод
001-0048|ерөөсөө ингээд босгож бараг чадахгүй байхаа бараг|ерөөсөө ингээд босгож бараг чадахгүй байхаа бараг
001-0000|өнөөдөр би та бүхний амьдралаас|өнөөдөр би та бүхний амьдралаас
001-0039|яагаад гэхээр тэр хүүхэд|яагаад гэхээр тэр хүүхэд
001-0097|тэгээд би энэ тухайн үед бол төрийн таван одоо төрийн өмчит таван сургуулиас|тэгээд би энэ тухайн үед бол төрийн таван одоо төрийн өмчит таван сургуулиас
001-0034|надад тэврүүлсэн байхгүй юу|надад тэврүүлсэн байхгүй юу
001-0012|фэйсбүүк|фэйсбүүк
001-0086|тэгээд яагаад чи заавал сөрөг нөлөөг нь гаргах гээд байгаан? сайн талыг нь харж болдоггүй юм уу?|тэгээд яагаад чи заавал сөрөг нөлөөг нь гаргах гээд байгаан? сайн талыг нь харж болдоггүй юм уу?
001-0002|мянга наян секунд секунд|мянга наян секунд секунд
001-0056|тэрийг харсан хүмүүс л хийсэн|тэрийг харсан хүмүүс л хийсэн
001-0058|тэгээд гучин сая төгрөгөө даваад гучин таван сая төгрөг олоод нөгөө хүүхэд маань энэтхэг рүү яваад|тэгээд гучин сая төгрөгөө даваад гучин таван сая төгрөг олоод нөгөө хүүхэд маань энэтхэг рүү яваад
001-0085|яагаад гэхээр тэр сэдэв нь одоо судлагдаагүй сэдэв байсан социологийн манай тэнхимийн хувьд|яагаад гэхээр тэр сэдэв нь одоо судлагдаагүй сэдэв байсан социологийн манай тэнхимийн хувьд
001-0028|нэг нь харамсалтай нь хорвоог орхицон байсан|нэг нь харамсалтай нь хорвоог орхицон байсан
001-0052|тэгсэн чинь хамгийн гайхалтай нь|тэгсэн чинь хамгийн гайхалтай нь
001-0089|хүмүүс орой унтдаг болсон байна, ядардаг болсон гэжийн|хүмүүс орой унтдаг болсон байна, ядардаг болсон гэжийн
001-0043|тэ фэйсбүүкээр маш олон хүмүүстэй холбогдсон маш олон хүмүүстэй ингээд|тэ фэйсбүүкээр маш олон хүмүүстэй холбогдсон маш олон хүмүүстэй ингээд
001-0036|хүнд цохилдог юм уу|хүнд цохилдог юм уу
001-0082|оюутан залуучуудын фэйсбүүк хэрэглээ ба сөрөг нөлөө гэдэг сэдвээр бичжийсэн|оюутан залуучуудын фэйсбүүк хэрэглээ ба сөрөг нөлөө гэдэг сэдвээр бичжийсэн
001-0073|одоо хоёр байтугай гурав дөрвөн хүний амийг аварчихдаг эерэг зүйлүүдийг байнга хийж чаддаг, эерэг зүйлийн төлөө тэмүүлж чаддаг|одоо хоёр байтугай гурав дөрвөн хүний амийг аварчихдаг эерэг зүйлүүдийг байнга хийж чаддаг, эерэг зүйлийн төлөө тэмүүлж чаддаг
001-0094|тэгээ авж байхад их сонин сонин гарсан тэгээд энэ дундаас хамгийн сонирхолтой нь|тэгээ авж байхад их сонин сонин гарсан тэгээд энэ дундаас хамгийн сонирхолтой нь
001-0079|хоёр мянга арван хоёроос арван гурван оны хооронд би нэг судалгааны ажил бичсийн төгсөхгөөд бакалаврынхаа дипломоо хамгаалахгаад|хоёр мянга арван хоёроос арван гурван оны хооронд би нэг судалгааны ажил бичсийн төгсөхгөөд бакалаврынхаа дипломоо хамгаалахгаад
001-0075|саяын энэ хоёр кэйсэн дээр батлагдсан байх|саяын энэ хоёр кэйсэн дээр батлагдсан байх
001-0044|ярилцаад маш олон хүмүүс ингээл тэ|ярилцаад маш олон хүмүүс ингээл тэ
001-0003|гэхээр их сонин сонсогдож байж магадгүй мянга наян секунд секунд гэдэг бол магадгүй|гэхээр их сонин сонсогдож байж магадгүй мянга наян секунд секунд гэдэг бол магадгүй
001-0054|гурван сарын хугацаанд|гурван сарын хугацаанд
001-0041|зүгээр л тэр өдрийг аягүй аз жаргалтай өнгөрүүлжийсэн нь надад үнэхээр гоё санагдсан|зүгээр л тэр өдрийг аягүй аз жаргалтай өнгөрүүлжийсэн нь надад үнэхээр гоё санагдсан
001-0018|хамгийн жижигхэн, хамгийн бяцхан|хамгийн жижигхэн, хамгийн бяцхан
001-0005|хамгийн дотны хүндээ хайртай гэдэг үгийг хэлэх ч юм уу, эсвэл сэтгэл хөдлөлөө, өөрийнхөө дотроос гаргаж чадаагүй үгээ хэлэхэд бол|хамгийн дотны хүндээ хайртай гэдэг үгийг хэлэх ч юм уу, эсвэл сэтгэл хөдлөлөө, өөрийнхөө дотроос гаргаж чадаагүй үгээ хэлэхэд бол
001-0055|тэгээд мөнххүслэн хүүхдийгээ энэтхэгрүү баярлалаа хамгийн гол нь тэгээд энэ нетворкийг болвол та бүхэн|тэгээд мөнххүслэн хүүхдийгээ энэтхэгрүү баярлалаа хамгийн гол нь тэгээд энэ нетворкийг болвол та бүхэн
001-0047|за гучин сая төгрөг бол аягүй мөнгө байнаа|за гучин сая төгрөг бол аягүй мөнгө байнаа
001-0083|тэгээд тухайн үед багш нартаа тэнхимийнхээ одоо эрдмийн зөвлөлийн багш нартаа үзүүлж байхад|тэгээд тухайн үед багш нартаа тэнхимийнхээ одоо эрдмийн зөвлөлийн багш нартаа үзүүлж байхад
001-0011|тэр болвол сошиал мэдиа|тэр болвол сошиал мэдиа
001-0019|тийм сайн найзтай болсон|тийм сайн найзтай болсон
001-0078|сошиал медиа, фэйсбүүк|сошиал медиа, фэйсбүүк
001-0100|тэгээд энэ дээрээс юуг харжийна гэхээр, бид нар одоо ийм болчжаахгүй юу өмнө нь болвол одоо юу гэдгийн таван жилийн өмнө ч юмуу арван жилийн өмнө ингээл ийм нетворк үүсээгүй сүлжээ үүсээгүй байхад одоо тэ|тэгээд энэ дээрээс юуг харжийна гэхээр, бид нар одоо ийм болчжаахгүй юу өмнө нь болвол одоо юу гэдгийн таван жилийн өмнө ч юмуу арван жилийн өмнө ингээл ийм нетворк үүсээгүй сүлжээ үүсээгүй байхад одоо тэ
001-0096|фэйсбүүкээр эсрэг хүйстэнтэйгээ танилцаж болзож байсан уу? гэсэн асуулт байсын|фэйсбүүкээр эсрэг хүйстэнтэйгээ танилцаж болзож байсан уу? гэсэн асуулт байсын
001-0057|энэ дунд бол бид нар зүгээр холболт болоол тэр хүүхдэд тусгалыг нь олж өгсөн|энэ дунд бол бид нар зүгээр холболт болоол тэр хүүхдэд тусгалыг нь олж өгсөн
001-0067|гурван сарын хугацаанд дахиал гучин сая төгрөгөө босгосон нөгөө охин маань орос руу явсан одоо бас одоо|гурван сарын хугацаанд дахиал гучин сая төгрөгөө босгосон нөгөө охин маань орос руу явсан одоо бас одоо
001-0077|тэгээд хоёр мянга одоо ингээд юм чинь угаасаа хоёр талтай саяны сайн тал нь одоо ийм байгаа|тэгээд хоёр мянга одоо ингээд юм чинь угаасаа хоёр талтай саяны сайн тал нь одоо ийм байгаа
001-0035|тэгж тэвэрч байхад тэр нэг хавсарсан гажигтай хүүхдийн зүрх нь одоо тийм аймар|тэгж тэвэрч байхад тэр нэг хавсарсан гажигтай хүүхдийн зүрх нь одоо тийм аймар
001-0021|мөнххүслэн хүү дөрвөн настай, зүрхний хавсарсан|мөнххүслэн хүү дөрвөн настай, зүрхний хавсарсан
001-0031|за одоо нэг жоохон л хүүхэд байна даа гээл харчаал байж байхдаа өөрөө ингээд над руу инээж ирээл, бид нар шиг ийм янз бүрийн|за одоо нэг жоохон л хүүхэд байна даа гээл харчаал байж байхдаа өөрөө ингээд над руу инээж ирээл, бид нар шиг ийм янз бүрийн
001-0046|тэгээд бид нар гурван сарын хугацаанд анх болвол би ээжид нь хэлж байсан байх|тэгээд бид нар гурван сарын хугацаанд анх болвол би ээжид нь хэлж байсан байх
001-0088|сонирхолтой сонирхолтой асуулга дээр сонин үр дүн гарсан, мэдээж та бүхний одоо энэ мэдэж байгаагаар бол одоо|сонирхолтой сонирхолтой асуулга дээр сонин үр дүн гарсан, мэдээж та бүхний одоо энэ мэдэж байгаагаар бол одоо
001-0006|хангалттай хугацаа|хангалттай хугацаа
001-0017|гарч ирснээр надад бас нэг гоё зүйл тохиолдсон л доо, хоёр мянга арван дөрвөн онд би|гарч ирснээр надад бас нэг гоё зүйл тохиолдсон л доо, хоёр мянга арван дөрвөн онд би
001-0080|тэгээд тухайн үед ямар сэдвээр бичих үү гэжийсан|тэгээд тухайн үед ямар сэдвээр бичих үү гэжийсан
001-0042|тэгээд энэ хүүхдэд тусалсан, энэ хүүхдэд туслахад хамгийн том тус болсон хүн нь фэйсбүүк|тэгээд энэ хүүхдэд тусалсан, энэ хүүхдэд туслахад хамгийн том тус болсон хүн нь фэйсбүүк
001-0072|бид нар чадахын болвол|бид нар чадахын болвол
001-0029|монголд бол хоёр л тийм хүүхэд байдаг|монголд бол хоёр л тийм хүүхэд байдаг
001-0053|гучин сая төгрөг босгосон бид нар|гучин сая төгрөг босгосон бид нар
001-0071|тэгээд ингээд харахаар сошиал медиа, фэйсбүүк, би нар ингээд сайн юмыг магадгүй өнөөдөр ингээд жишээ авахад, бид нар сайн сайхан юмны төлөө байнга эрмэлзэж байдаг энд ирсэн залуучууд бүгдээрээ ингээд сайн сайхан юмны төлөө эрмэлзээд ирсэн нь хамгийн сайшаалтай|тэгээд ингээд харахаар сошиал медиа, фэйсбүүк, би нар ингээд сайн юмыг магадгүй өнөөдөр ингээд жишээ авахад, бид нар сайн сайхан юмны төлөө байнга эрмэлзэж байдаг энд ирсэн залуучууд бүгдээрээ ингээд сайн сайхан юмны төлөө эрмэлзээд ирсэн нь хамгийн сайшаалтай
001-0010|нэгэн зүйл маш том орон зай болж орж ирсэн, зарим хүмүүсийн хувьд бол эзэн, зарим хүмүүсийн хувьд бол хэрэглээ болж эхэлсэн|нэгэн зүйл маш том орон зай болж орж ирсэн, зарим хүмүүсийн хувьд бол эзэн, зарим хүмүүсийн хувьд бол хэрэглээ болж эхэлсэн
001-0061|тэгээд он гараад одоо арван таван оны нэг сард дахиад нэг охин гарж ирээд|тэгээд он гараад одоо арван таван оны нэг сард дахиад нэг охин гарж ирээд
001-0016|а энэ зүйл|а энэ зүйл
001-0062|бас л хүнд санагдаж байсан одоо ингээд нэг хийцэн юмыг хүмүүс одоо аягүй бол тэ|бас л хүнд санагдаж байсан одоо ингээд нэг хийцэн юмыг хүмүүс одоо аягүй бол тэ
001-0066|тэгээд тэр охиныг бас л гурван сарын хугацаа, гурвын тоо их гоё ч тоо юм уу тэгээл|тэгээд тэр охиныг бас л гурван сарын хугацаа, гурвын тоо их гоё ч тоо юм уу тэгээл
001-0027|тухайн үед болвол тэр энэ зүрхний хавсарсан гажигтай хоёр хүүхэд байж байгаад|тухайн үед болвол тэр энэ зүрхний хавсарсан гажигтай хоёр хүүхэд байж байгаад
001-0032|хүүхэд бол хамгийн цагаан цаас юу ч мэдрээгүй инээж ирээд|хүүхэд бол хамгийн цагаан цаас юу ч мэдрээгүй инээж ирээд
001-0015|том орон зай таблет гарч ирсэн|том орон зай таблет гарч ирсэн
001-0045|бид нарт хандаж байсан|бид нарт хандаж байсан
001-0022|хүнд гажигтай|хүнд гажигтай
001-0064|тэгээд бас айж л байсан л даа за одоо юу болох бол гээд тэгээд хулан охин бас найман сар намайн сартай бас л одоо тэр хүүхэд чинь юу ч мэдэхгүй ингээл|тэгээд бас айж л байсан л даа за одоо юу болох бол гээд тэгээд хулан охин бас найман сар намайн сартай бас л одоо тэр хүүхэд чинь юу ч мэдэхгүй ингээл
001-0009|бид нарын амьдралд|бид нарын амьдралд
001-0037|миний ингээд бие рүү бүр ингээд|миний ингээд бие рүү бүр ингээд
001-0024|тэр хүүхдэд хэн ч туслах хүн байгаагүй|тэр хүүхдэд хэн ч туслах хүн байгаагүй
001-0033|зурсан зургаа өгөөд|зурсан зургаа өгөөд
001-0023|тэгээд тэр хүүхэд ээжтэйгээ хоёулахнаа амьдардаг|тэгээд тэр хүүхэд ээжтэйгээ хоёулахнаа амьдардаг
001-0038|яалт ч үгүй цохиод байгаа юм шиг мэдрэгдсэн, тухайн үед бол надад аягүй эмзэг туссан|яалт ч үгүй цохиод байгаа юм шиг мэдрэгдсэн, тухайн үед бол надад аягүй эмзэг туссан
001-0049|битгий одоо сэтгэлээр унаарай, ямар ч байсан хамгийн чаддаг бүхнээ бид нар хийяа|битгий одоо сэтгэлээр унаарай, ямар ч байсан хамгийн чаддаг бүхнээ бид нар хийяа
001-0065|жоохон өвдөхөөрөө уйлдаг|жоохон өвдөхөөрөө уйлдаг
001-0081|бас л одоо нөгөө фэйсбүүкээрээ бичсэн|бас л одоо нөгөө фэйсбүүкээрээ бичсэн
001-0008|сүүлийн таван жилд болвол, бид нарын одоо хоёр жилд ч гэх юм уу|сүүлийн таван жилд болвол, бид нарын одоо хоёр жилд ч гэх юм уу
